C:\oop\robotproject\src\main\java\com\thanya\robotproject\TableMap.java
C:\oop\robotproject\src\main\java\com\thanya\robotproject\MainProgram.java
C:\oop\robotproject\src\main\java\com\thanya\robotproject\Bomb.java
C:\oop\robotproject\src\main\java\com\thanya\robotproject\Robot.java
